{
  "apps" : [{
			"name"      : "jamaah-api",
      "script"    : "jamaah-api.js",
			"exec_mode" : "cluster",
			"instances"	:	"0",
      "env": {
				"COMMON_ENV_VAR": "true"
      },
      "env_production" : {
        "NODE_ENV": "production"
			}
	},
	{
				"name"      : "jamaah-cms",
	      "script"    : "jamaah-cms.js",
	      "env": {
					"COMMON_ENV_VAR": "true"
	      },
	      "env_production" : {
	        "NODE_ENV": "production"
				}
		}],
  "deploy" : {
    "production" : {
      "user" : "root",
      "host" : "199.58.86.214",
      "ref"  : "origin/master",
			"repo" : "git@bitbucket.org:caiguda-web/prayapp-web.git",
      "path" : "/var/www/nodejs/production/Jamaah",
      "post-deploy" : "pm2 startOrRestart ecosystem.json --env production"
    }
  }
}
