{
	"application": {
		"apiPort": 3016,
		"cmsPort": 3017
	},
	"database": {
		"url": "mongodb://localhost/jamaah-dev"
	},
	"mailer": {
		"user": "jamah.help@gmail.com",
		"clientId": "764381284859-0rp2s3vf2dgas4hn6evb41ctp6kslui9.apps.googleusercontent.com",
		"clientSecret": "c0VlYQFnjJ_cQjyjHdvySygI",
		"refreshToken": "1/NfUpk3SppdXKXIJ0rt9t2g0xW3q9AVmzKlEnsTvSEh8",
		"accessToken": "ya29.Ci9CA1w_u3rFXoD4wB8FJCjG3thPNCkKwPqqmdRRSamXeE97qbpL92llOmsElZx7IA"
	},
	"apn": {
		"cert": "aps_development-cer.pem",
		"key": "aps_development-key.pem"
	},
	"gcm": {
		"apiKey": "AIzaSyBp3aT7-GqKOr1OnyikmXq-dJOFmN2p830"
	},
	"restoreUrl": "http://cms.dev.jamah.org/restore",
	"restoreUrlOld": "http://cms.jamaah-dev.caiguda.com/restore"
}